<?xml version="1.0" ?>
<robot
  name="kraft">

  <link name="world"/>

  <joint name="world_to_vehicle" type="fixed">
    <parent link="world"/>
    <child link="vehicle"/>
    <origin rpy="0 0 0" xyz="0 0 0"/>
  </joint>

  <link name="vehicle">
    <!--<inertial>
      <mass value="95" />
      <inertia ixx="100"  ixy="0"  ixz="0" iyy="100" iyz="0" izz="100" />
    </inertial> -->
    <visual>
      <origin rpy="0 0 0" xyz="0 0 0"/>
      <geometry>
        <mesh filename="package://kraft_arm_description/meshes/nUIKraft/nUI_body_decimated.STL"/>
        <!--box size="0.8 0.5 0.5"/> -->
      </geometry>
      <material name="">
        <color rgba="1 0 0.3 1" />
      </material>
    </visual>
    <collision>
      <origin rpy="0 0 0" xyz="0 0 0"/>
      <geometry>
        <mesh filename="package://kraft_arm_description/meshes/nUIKraft/nUI_body_decimated.STL"/>
        <!--box size="0.8 0.5 0.5"/> -->
      </geometry>
    </collision>
  </link>

   <link name="DoorStarboard">
    <visual>
      <!-- <origin rpy="0 0 0" xyz="1.2135 1.51 1.3"/> -->
      <origin rpy="0 0 0" xyz="0 0 0"/>
      <geometry>
        <mesh filename="package://kraft_arm_description/meshes/nUIKraft/nUI_stbd_door_decimated.STL"/>
      </geometry>
      <material name="">
        <color rgba="1 0.3 0 1" />
      </material>
    </visual>
    <collision>
      <!-- <origin rpy="0 0 0" xyz="1.2135 1.51 1.3"/> -->
      <origin rpy="0 0 0" xyz="0 0 0"/>
      <geometry>
        <mesh filename="package://kraft_arm_description/meshes/nUIKraft/nUI_stbd_door_decimated.STL"/>
      </geometry>
    </collision>
  </link>
  <joint
    name="SwingStarboard"
    type="revolute">
    <origin
      xyz="0.2585 0.39 0.782"
      rpy="0 0 0" />
    <parent
      link="vehicle" />
    <child
      link="DoorStarboard" />
    <axis
      xyz="0 0 1" />
    <limit
      lower="-1.5708"
      upper="0"
      effort="1000"
      velocity="6.0" />
  </joint>

  <link name="DoorPort">
    <visual>
      <!-- <origin rpy="0 0 0" xyz="1.2135 0.2665 1.3"/> -->
      <origin rpy="0 0 0" xyz="0 0 0"/>
      <geometry>
        <mesh filename="package://kraft_arm_description/meshes/nUIKraft/nUI_port_door_decimated.STL"/>
      </geometry>
      <material name="">
        <color rgba="1 0.3 0 1" />
      </material>
    </visual>
    <collision>
      <!-- <origin rpy="0 0 0" xyz="1.2135 0.2665 1.3"/> -->
      <origin rpy="0 0 0" xyz="0 0 0"/>
      <geometry>
        <mesh filename="package://kraft_arm_description/meshes/nUIKraft/nUI_port_door_decimated.STL"/>
      </geometry>
    </collision>
  </link>
  <joint
    name="SwingPort"
    type="revolute">
    <origin
      xyz="0.2585 -0.8535 0.782"
      rpy="0 0 0" />
    <parent
      link="vehicle" />
    <child
      link="DoorPort" />
    <axis
      xyz="0 0 1" />
    <limit
      lower="0"
      upper="1.5708"
      effort="1000"
      velocity="6.0" />
  </joint>

  <link name="StereoCamera">
    <visual>
      <origin rpy="0 0 0" xyz="0 0 0"/>
      <geometry>
        <mesh filename="package://kraft_arm_description/meshes/nUIKraft/nUI_stereo_camera_decimated.STL"/>
      </geometry>
      <material name="">
        <color rgba="0.663 0.663 0.663 1" />
      </material>
    </visual>
    <collision>
      <origin rpy="0 0 0" xyz="0 0 0"/>
      <geometry>
        <mesh filename="package://kraft_arm_description/meshes/nUIKraft/nUI_stereo_camera_decimated.STL"/>
      </geometry>
    </collision>
  </link>

  <joint name="door_to_camera" type="fixed">
    <parent link="DoorPort"/>
    <child link="StereoCamera"/>
    <origin rpy="0 0 0" xyz="0 0 0"/>
  </joint>

  <joint name="door_to_base" type="fixed">
    <parent link="DoorStarboard"/>
    <child link="Base"/>
    <origin rpy="0 0 -1.57079632679" xyz="-0.2585 -0.39 -0.782"/>
    <!-- <origin rpy="0 0 3.14159" xyz="-0.2585 -0.39 -0.782"/> -->
  </joint>

  <link
    name="Base">
    <visual>
      <origin
        xyz="0 0 0"
        rpy="0 0 0" />
      <geometry>
        <mesh
          filename="package://kraft_arm_description/meshes/KRAFTARM/Base_Decimated.STL" />
      </geometry>
      <material
        name="">
        <color
          rgba="0.663 0.663 0.663 1" />
      </material>
    </visual>
    <collision>
      <origin
        xyz="0 0 0"
        rpy="0 0 0" />
      <geometry>
        <mesh
          filename="package://kraft_arm_description/meshes/KRAFTARM/Base_Decimated.STL" />
      </geometry>
    </collision>
  </link>

  <link
    name="Azimuth">
    <inertial>
      <origin
        xyz="-0.000218370592319294 0.233678497275685 5.42042534612322E-06"
        rpy="0 0 0" />
      <mass
        value="7.49401010780912" />
      <inertia
        ixx="0"
        ixy="0"
        ixz="0"
        iyy="0"
        iyz="0"
        izz="0" />
    </inertial>
    <visual>
      <origin
        xyz="0 0 0"
        rpy="0 0 0" />
      <geometry>
        <mesh
          filename="package://kraft_arm_description/meshes/KRAFTARM/Azimuth_Decimated.STL" />
      </geometry>
      <material
        name="">
        <color
          rgba="0.663 0.663 0.663 1" />
      </material>
    </visual>
    <collision>
      <origin
        xyz="0 0 0"
        rpy="0 0 0" />
      <geometry>
        <mesh
          filename="package://kraft_arm_description/meshes/KRAFTARM/Azimuth_Decimated.STL" />
      </geometry>
    </collision>
  </link>
  <joint
    name="Slew"
    type="revolute">
    <origin
      xyz="0 0 0"
      rpy="1.5708 0 0" />
    <parent
      link="Base" />
    <child
      link="Azimuth" />
    <axis
      xyz="0 -1 0" />
    <limit
      lower="-3.35619"
      upper="3.35619"
      effort="1000"
      velocity="6.0" />
      <!-- lower="-2.35619"
      upper="2.35619" -->
  </joint>

  <link
    name="UpperArm">
    <inertial>
      <origin
        xyz="0.0356337039429357 0.368128463655105 3.32878710049502E-06"
        rpy="0 0 0" />
      <mass
        value="1.84226720759928" />
      <inertia
        ixx="0"
        ixy="0"
        ixz="0"
        iyy="0"
        iyz="0"
        izz="0" />
    </inertial>
    <visual>
      <origin
        xyz="0 0 0"
        rpy="0 0 0" />
      <geometry>
        <mesh
          filename="package://kraft_arm_description/meshes/KRAFTARM/UpperArm_Decimated.STL" />
      </geometry>
      <material
        name="">
        <color
          rgba="0.663 0.663 0.663 1" />
      </material>
    </visual>
    <collision>
      <origin
        xyz="0 0 0"
        rpy="0 0 0" />
      <geometry>
        <mesh
          filename="package://kraft_arm_description/meshes/KRAFTARM/UpperArm_Decimated.STL" />
      </geometry>
    </collision>
  </link>
  <joint
    name="Shoulder"
    type="revolute">
    <origin
      xyz="0.085835 0.24676 0"
      rpy="0 0 0" />
    <parent
      link="Azimuth" />
    <child
      link="UpperArm" />
    <axis
      xyz="0 0 1" />
    <limit
      lower="-1.91986"
      upper="0"
      effort="1000"
      velocity="6.0" />
  </joint>
  <link
    name="Forearm">
    <inertial>
      <origin
        xyz="0.229916738335105 -2.06957501946738E-06 -0.078788442248813"
        rpy="0 0 0" />
      <mass
        value="1.73713036050466" />
      <inertia
        ixx="0.00120763228893291"
        ixy="-4.00127366782722E-07"
        ixz="0.00489957929455148"
        iyy="0.0322637791927748"
        iyz="-8.80760247115379E-08"
        izz="0.0310561470193504" />
    </inertial>
    <visual>
      <origin
        xyz="0 0 0"
        rpy="0 0 0" />
      <geometry>
        <mesh
          filename="package://kraft_arm_description/meshes/KRAFTARM/Forearm_Decimated.STL" />
      </geometry>
      <material
        name="">
        <color
          rgba="0.663 0.663 0.663 1" />
      </material>
    </visual>
    <collision>
      <origin
        xyz="0 0 0"
        rpy="0 0 0" />
      <geometry>
        <mesh
          filename="package://kraft_arm_description/meshes/KRAFTARM/Forearm_Decimated.STL" />
      </geometry>
    </collision>
  </link>
  <joint
    name="Elbow"
    type="revolute">
    <origin
      xyz="0.0381 0.76741 0"
      rpy="1.5708 0 -1.4943" />
    <parent
      link="UpperArm" />
    <child
      link="Forearm" />
    <axis
      xyz="0 1 0" />
    <limit
      lower="0"
      upper="2.0944"
      effort="1000"
      velocity="6.0" />
      <!-- lower="0.052359877550" -->
  </joint>
  <link
    name="Ujoint">
    <inertial>
      <origin
        xyz="0.0697313109236362 5.59393610752301E-05 3.08858582273783E-06"
        rpy="0 0 0" />
      <mass
        value="0.233978396749991" />
      <inertia
        ixx="0"
        ixy="0"
        ixz="0"
        iyy="0"
        iyz="0"
        izz="0" />
    </inertial>
    <visual>
      <origin
        xyz="0 0 0"
        rpy="0 0 0" />
      <geometry>
        <mesh
          filename="package://kraft_arm_description/meshes/KRAFTARM/Ujoint_Decimated.STL" />
      </geometry>
      <material
        name="">
        <color
          rgba="0.663 0.663 0.663 1" />
      </material>
    </visual>
    <collision>
      <origin
        xyz="0 0 0"
        rpy="0 0 0" />
      <geometry>
        <mesh
          filename="package://kraft_arm_description/meshes/KRAFTARM/Ujoint_Decimated.STL" />
      </geometry>
    </collision>
  </link>
  <joint
    name="Wrist_Pitch"
    type="revolute">
    <origin
      xyz="0.38264 0 -0.095631"
      rpy="-1.5708 -2.0817E-16 0" />
    <parent
      link="Forearm" />
    <child
      link="Ujoint" />
    <axis
      xyz="0 0 -1" />
    <limit
      lower="-1.309"
      upper="1.309"
      effort="1000"
      velocity="6.0" />
  </joint>
  <link
    name="Wrist">
    <inertial>
      <origin
        xyz="0.0001388068146222 0.100690552854262 -0.0196155356036389"
        rpy="0 0 0" />
      <mass
        value="1.47746003986917" />
      <inertia
        ixx="0.00557095041635047"
        ixy="1.47544415421486E-05"
        ixz="-2.37068521896675E-06"
        iyy="0.00014024451083553"
        iyz="0.0008725907525413"
        izz="0.00543078607628544" />
    </inertial>
    <visual>
      <origin
        xyz="0 0 0"
        rpy="0 0 0" />
      <geometry>
        <mesh
          filename="package://kraft_arm_description/meshes/KRAFTARM/Wrist_Decimated.STL" />
      </geometry>
      <material
        name="">
        <color
          rgba="0.663 0.663 0.663 1" />
      </material>
    </visual>
    <collision>
      <origin
        xyz="0 0 0"
        rpy="0 0 0" />
      <geometry>
        <mesh
          filename="package://kraft_arm_description/meshes/KRAFTARM/Wrist_Decimated.STL" />
      </geometry>
    </collision>
  </link>
  <joint
    name="Wrist_Yaw"
    type="revolute">
    <origin
      xyz="0.13322 0 0"
      rpy="-1.5869 1.5708 3.1255" />
    <parent
      link="Ujoint" />
    <child
      link="Wrist" />
    <axis
      xyz="0 0 1" />

    <limit
      lower="-0.93375"
      upper="0.94945"
      effort="1000"
      velocity="6.0" />

    <!-- <limit
      lower="-0.47124"
      upper="1.16937"
      effort="1000"
      velocity="6.0" /> -->
      <!-- lower="-0.872665"
      upper="0.872556" -->
  </joint>
  <link
    name="Grip_Base">
    <inertial>
      <origin
        xyz="0.0248436767240737 1.28092987559123E-08 -9.43689570931383E-16"
        rpy="0 0 0" />
      <mass
        value="0.225822482191171" />
      <inertia
        ixx="0"
        ixy="0"
        ixz="0"
        iyy="0"
        iyz="0"
        izz="0" />
    </inertial>
    <visual>
      <origin
        xyz="0 0 0"
        rpy="0 0 0" />
      <geometry>
        <mesh
          filename="package://kraft_arm_description/meshes/KRAFTARM/Grip_Base_Decimated.STL" />
      </geometry>
      <material
        name="">
        <color
          rgba="0.663 0.663 0.663 1" />
      </material>
    </visual>
    <collision>
      <origin
        xyz="0 0 0"
        rpy="0 0 0" />
      <geometry>
        <mesh
          filename="package://kraft_arm_description/meshes/KRAFTARM/Grip_Base_Decimated.STL" />
      </geometry>
    </collision>
  </link>
  <joint
    name="Grip_Roll"
    type="continuous">
    <!-- NUI Vehicle -->
    <!-- <origin
      xyz="-0.00079045 0.19335 -0.0508"
      rpy="2.25 5.1625E-15 1.5708" /> -->
    <!-- Testbed -->
    <origin
      xyz="-0.00079045 0.19335 -0.0508"
      rpy="-1.74 5.1625E-15 1.5708" />
    <parent
      link="Wrist" />
    <child
      link="Grip_Base" />
    <axis
      xyz="1 0 0" />
    <limit
      effort="1000"
      velocity="6.0" />
    <!-- <limit
      lower="-2.63545"
      upper="3.64774"
      effort="1000"
      velocity="6.0" /> -->
    <!-- <limit
      lower="-3.14159"
      upper="3.14159"
      effort="1000"
      velocity="6.0" /> -->
  </joint>
  <link
    name="Outer_Jaw">
    <inertial>
      <origin
        xyz="-0.0215194167244962 0.0422805660966342 -3.40120541619804E-07"
        rpy="0 0 0" />
      <mass
        value="0.136464455957897" />
      <inertia
        ixx="0"
        ixy="0"
        ixz="0"
        iyy="0"
        iyz="0"
        izz="0" />
    </inertial>
    <visual>
      <origin
        xyz="0 0 0"
        rpy="0 0 0" />
      <geometry>
        <mesh
          filename="package://kraft_arm_description/meshes/KRAFTARM/Outer_Jaw_Decimated.STL" />
      </geometry>
      <material
        name="">
        <color
          rgba="0.752941176470588 0.752941176470588 0.752941176470588 1" />
      </material>
    </visual>
    <collision>
      <origin
        xyz="0 0 0"
        rpy="0 0 0" />
      <geometry>
        <mesh
          filename="package://kraft_arm_description/meshes/KRAFTARM/Outer_Jaw_Decimated.STL" />
      </geometry>
    </collision>
  </link>
  <joint
    name="Outer_Grip"
    type="continuous">
    <origin
      xyz="0.055922 0.036513 0"
      rpy="3.1416 -7.1901E-09 2.0944" />
    <parent
      link="Grip_Base" />
    <child
      link="Outer_Jaw" />
    <axis
      xyz="0 0 -1" />
    <limit
      effort="1000"
      velocity="6.0" />
  </joint>
  <link
    name="Inner_Jaw">
    <inertial>
      <origin
        xyz="-0.0214188755520863 0.0409540919515732 4.47992642982342E-10"
        rpy="0 0 0" />
      <mass
        value="0.127954467910778" />
      <inertia
        ixx="0"
        ixy="0"
        ixz="0"
        iyy="0"
        iyz="0"
        izz="0" />
    </inertial>
    <visual>
      <origin
        xyz="0 0 0"
        rpy="0 0 0" />
      <geometry>
        <mesh
          filename="package://kraft_arm_description/meshes/KRAFTARM/Inner_Jaw_Decimated.STL" />
      </geometry>
      <material
        name="">
        <color
          rgba="0.752941176470588 0.752941176470588 0.752941176470588 1" />
      </material>
    </visual>
    <collision>
      <origin
        xyz="0 0 0"
        rpy="0 0 0" />
      <geometry>
        <mesh
          filename="package://kraft_arm_description/meshes/KRAFTARM/Inner_Jaw_Decimated.STL" />
      </geometry>
    </collision>
  </link>
  <joint
    name="Inner_Grip"
    type="continuous">
    <origin
      xyz="0.055922 -0.036512 0"
      rpy="-4.1512E-09 7.1901E-09 -2.0944" />
    <mimic
      joint="Outer_Grip" multiplier="-1" offset="0"/>
    <parent
      link="Grip_Base" />
    <child
      link="Inner_Jaw" />
    <axis
      xyz="0 0 1" />
    <limit
      effort="1000"
      velocity="6.0" />
  </joint>

  <link name="Fisheye_Model">
    <visual>
      <origin rpy="0 0 0" xyz="0 0 0"/>
      <geometry>
        <mesh filename="package://kraft_arm_description/meshes/nUIKraft/wrist_fisheye.STL"/>
      </geometry>
      <material name="">
        <color rgba="0.663 0.663 0.663 1" />
      </material>
    </visual>
    <collision>
      <origin rpy="0 0 0" xyz="0 0 0"/>
      <geometry>
        <mesh filename="package://kraft_arm_description/meshes/nUIKraft/wrist_fisheye.STL"/>
      </geometry>
    </collision>
  </link>

  <joint name="wrist_to_fisheye" type="fixed">
    <parent link="Wrist"/>
    <child link="Fisheye_Model"/>
    <origin rpy="0 0 0" xyz="0 0 0"/>
  </joint>
</robot>
